{
    "page":1,
    "total_results":10000,
    "total_pages":500,
    "results": [
        {"popularity":312.161,
            "vote_count":299,
            "video":false,
            "poster_path":"\/kjMbDciooTbJPofVXgAoFjfX8Of.jpg",
            "id":516486,
            "adult":false,
            "backdrop_path":"\/xXBnM6uSTk6qqCf0SRZKXcga9Ba.jpg",
            "original_language":"en",
            "original_title":"Joker",
            "genre_ids":[28,18,10752],
            "title":"Joker",
            "vote_average":7.3,
            "overview":"Joker overview"
        }
    ]
}
